,Planet Name,Distance from sun
1904,SWEEPS-11,8500.0 Parsecs
242,KMT-2015-1 b,8200.0 Parsecs
2345,OGLE-2015-BLG-0051L b,8200.0 Parsecs
1762,MOA-2011-BLG-322 b,7740.0 Parsecs
1475,MOA-2011-BLG-293L b,7700.0 Parsecs
